…
### Setup a data.frame for the update data

``` r
cuc  <- LETTERS[cid];
update.df <- tibble::as_tibble(list(id = cid, cc = cuc));
update.df <- dplyr::group_by(update.df,id)

update.df
#> # A tibble: 26 x 2
#> # Groups:   id [26]
#>       id cc   
#>    <int> <chr>
#>  1     1 A    
#>  2     2 B    
#>  3     3 C    
#>  4     4 D    
#>  5     5 E    
#>  6     6 F    
#>  7     7 G    
#>  8     8 H    
#>  9     9 I    
#> 10    10 J    
#> # … with 16 more rows
```
…
